time,rho0,drho1,z1,h1,r10,r01,r20,h_e,c1
2017-04-03, 1020.42, 6.27, 117.50, 121.50, 2.84e-04, -3733.09, 1.49e-05, 137.75, 1.18
2017-04-03, 1020.42, 6.27, 117.50, 121.50, 2.84e-04, -3733.09, 1.49e-05, 137.75, 1.18
2017-04-03, 1020.42, 6.27, 117.50, 121.50, 2.84e-04, -3733.09, 1.49e-05, 137.75, 1.18
2017-04-03, 1020.42, 6.27, 117.50, 121.50, 2.84e-04, -3733.09, 1.49e-05, 137.75, 1.18
2017-04-04, 1020.41, 6.41, 123.18, 125.15, 6.61e-05, -3734.51, 1.43e-05, 137.79, 1.18
2017-04-04, 1020.41, 6.41, 123.18, 125.15, 6.61e-05, -3734.51, 1.43e-05, 137.79, 1.18
2017-04-04, 1020.41, 6.41, 123.18, 125.15, 6.61e-05, -3734.51, 1.43e-05, 137.79, 1.18
2017-04-04, 1020.41, 6.41, 123.18, 125.15, 6.61e-05, -3734.51, 1.43e-05, 137.79, 1.18
2017-04-05, 1020.52, 6.14, 120.14, 115.34, 1.97e-04, -3771.41, 1.58e-05, 137.74, 1.19
2017-04-05, 1020.52, 6.14, 120.14, 115.34, 1.97e-04, -3771.41, 1.58e-05, 137.74, 1.19
2017-04-05, 1020.52, 6.14, 120.14, 115.34, 1.97e-04, -3771.41, 1.58e-05, 137.74, 1.19
2017-04-05, 1020.52, 6.14, 120.14, 115.34, 1.97e-04, -3771.41, 1.58e-05, 137.74, 1.19
2017-04-06, 1020.85, 5.52, 120.77, 92.99, 2.19e-04, -3860.95, 2.01e-05, 137.57, 1.22
2017-04-06, 1020.85, 5.52, 120.77, 92.99, 2.19e-04, -3860.95, 2.01e-05, 137.57, 1.22
2017-04-06, 1020.85, 5.52, 120.77, 92.99, 2.19e-04, -3860.95, 2.01e-05, 137.57, 1.22
2017-04-06, 1020.85, 5.52, 120.77, 92.99, 2.19e-04, -3860.95, 2.01e-05, 137.57, 1.22
2017-04-07, 1020.98, 5.29, 121.29, 84.68, 2.11e-04, -3897.94, 2.20e-05, 137.46, 1.24
2017-04-07, 1020.98, 5.29, 121.29, 84.68, 2.11e-04, -3897.94, 2.20e-05, 137.46, 1.24
2017-04-07, 1020.98, 5.29, 121.29, 84.68, 2.11e-04, -3897.94, 2.20e-05, 137.46, 1.24
2017-04-07, 1020.98, 5.29, 121.29, 84.68, 2.11e-04, -3897.94, 2.20e-05, 137.46, 1.24
2017-04-08, 1020.94, 5.31, 120.21, 83.17, 2.77e-04, -3924.88, 2.22e-05, 137.43, 1.25
2017-04-08, 1020.94, 5.31, 120.21, 83.17, 2.77e-04, -3924.88, 2.22e-05, 137.43, 1.25
2017-04-08, 1020.94, 5.31, 120.21, 83.17, 2.77e-04, -3924.88, 2.22e-05, 137.43, 1.25
2017-04-08, 1020.94, 5.31, 120.21, 83.17, 2.77e-04, -3924.88, 2.22e-05, 137.43, 1.25
2017-04-09, 1021.04, 5.14, 120.05, 77.20, 3.05e-04, -3948.43, 2.37e-05, 137.31, 1.26
2017-04-09, 1021.04, 5.14, 120.05, 77.20, 3.05e-04, -3948.43, 2.37e-05, 137.31, 1.26
2017-04-09, 1021.04, 5.14, 120.05, 77.20, 3.05e-04, -3948.43, 2.37e-05, 137.31, 1.26
2017-04-09, 1021.04, 5.14, 120.05, 77.20, 3.05e-04, -3948.43, 2.37e-05, 137.31, 1.26
2017-04-10, 1021.10, 5.01, 118.74, 73.05, 4.04e-04, -3959.11, 2.48e-05, 137.20, 1.26
2017-04-10, 1021.10, 5.01, 118.74, 73.05, 4.04e-04, -3959.11, 2.48e-05, 137.20, 1.26
2017-04-10, 1021.10, 5.01, 118.74, 73.05, 4.04e-04, -3959.11, 2.48e-05, 137.20, 1.26
2017-04-10, 1021.10, 5.01, 118.74, 73.05, 4.04e-04, -3959.11, 2.48e-05, 137.20, 1.26
2017-04-11, 1021.10, 5.02, 120.82, 76.06, 2.61e-04, -3922.74, 2.42e-05, 137.30, 1.25
2017-04-11, 1021.10, 5.02, 120.82, 76.06, 2.61e-04, -3922.74, 2.42e-05, 137.30, 1.25
2017-04-11, 1021.10, 5.02, 120.82, 76.06, 2.61e-04, -3922.74, 2.42e-05, 137.30, 1.25
2017-04-11, 1021.10, 5.02, 120.82, 76.06, 2.61e-04, -3922.74, 2.42e-05, 137.30, 1.25
2017-04-12, 1021.05, 5.08, 120.73, 79.57, 2.57e-04, -3892.46, 2.34e-05, 137.37, 1.24
2017-04-12, 1021.05, 5.08, 120.73, 79.57, 2.57e-04, -3892.46, 2.34e-05, 137.37, 1.24
2017-04-12, 1021.05, 5.08, 120.73, 79.57, 2.57e-04, -3892.46, 2.34e-05, 137.37, 1.24
2017-04-12, 1021.05, 5.08, 120.73, 79.57, 2.57e-04, -3892.46, 2.34e-05, 137.37, 1.24
2017-04-13, 1021.00, 5.09, 117.94, 83.11, 4.09e-04, -3841.10, 2.27e-05, 137.40, 1.22
2017-04-13, 1021.00, 5.09, 117.94, 83.11, 4.09e-04, -3841.10, 2.27e-05, 137.40, 1.22
2017-04-13, 1021.00, 5.09, 117.94, 83.11, 4.09e-04, -3841.10, 2.27e-05, 137.40, 1.22
2017-04-13, 1021.00, 5.09, 117.94, 83.11, 4.09e-04, -3841.10, 2.27e-05, 137.40, 1.22
2017-04-14, 1021.05, 4.98, 118.21, 78.97, 4.11e-04, -3858.82, 2.38e-05, 137.33, 1.23
2017-04-14, 1021.05, 4.98, 118.21, 78.97, 4.11e-04, -3858.82, 2.38e-05, 137.33, 1.23
2017-04-14, 1021.05, 4.98, 118.21, 78.97, 4.11e-04, -3858.82, 2.38e-05, 137.33, 1.23
2017-04-14, 1021.05, 4.98, 118.21, 78.97, 4.11e-04, -3858.82, 2.38e-05, 137.33, 1.23
2017-04-15, 1021.03, 5.00, 119.21, 79.40, 3.49e-04, -3861.58, 2.36e-05, 137.35, 1.23
2017-04-15, 1021.03, 5.00, 119.21, 79.40, 3.49e-04, -3861.58, 2.36e-05, 137.35, 1.23
2017-04-15, 1021.03, 5.00, 119.21, 79.40, 3.49e-04, -3861.58, 2.36e-05, 137.35, 1.23
2017-04-15, 1021.03, 5.00, 119.21, 79.40, 3.49e-04, -3861.58, 2.36e-05, 137.35, 1.23
2017-04-16, 1021.10, 4.93, 123.00, 79.04, 1.21e-04, -3843.73, 2.38e-05, 137.37, 1.22
2017-04-16, 1021.10, 4.93, 123.00, 79.04, 1.21e-04, -3843.73, 2.38e-05, 137.37, 1.22
2017-04-16, 1021.10, 4.93, 123.00, 79.04, 1.21e-04, -3843.73, 2.38e-05, 137.37, 1.22
2017-04-16, 1021.10, 4.93, 123.00, 79.04, 1.21e-04, -3843.73, 2.38e-05, 137.37, 1.22
2017-04-17, 1021.13, 4.92, 124.88, 80.06, 7.44e-06, -3827.22, 2.36e-05, 137.40, 1.22
2017-04-17, 1021.13, 4.92, 124.88, 80.06, 7.44e-06, -3827.22, 2.36e-05, 137.40, 1.22
2017-04-17, 1021.13, 4.92, 124.88, 80.06, 7.44e-06, -3827.22, 2.36e-05, 137.40, 1.22
2017-04-17, 1021.13, 4.92, 124.88, 80.06, 7.44e-06, -3827.22, 2.36e-05, 137.40, 1.22
2017-04-18, 1021.20, 4.86, 127.71, 80.84, -1.61e-04, -3793.11, 2.36e-05, 137.40, 1.21
2017-04-18, 1021.20, 4.86, 127.71, 80.84, -1.61e-04, -3793.11, 2.36e-05, 137.40, 1.21
2017-04-18, 1021.20, 4.86, 127.71, 80.84, -1.61e-04, -3793.11, 2.36e-05, 137.40, 1.21
2017-04-18, 1021.20, 4.86, 127.71, 80.84, -1.61e-04, -3793.11, 2.36e-05, 137.40, 1.21
2017-04-19, 1021.18, 4.89, 129.56, 80.35, -2.72e-04, -3806.27, 2.37e-05, 137.38, 1.21
2017-04-19, 1021.18, 4.89, 129.56, 80.35, -2.72e-04, -3806.27, 2.37e-05, 137.38, 1.21
2017-04-19, 1021.18, 4.89, 129.56, 80.35, -2.72e-04, -3806.27, 2.37e-05, 137.38, 1.21
2017-04-19, 1021.18, 4.89, 129.56, 80.35, -2.72e-04, -3806.27, 2.37e-05, 137.38, 1.21
2017-04-20, 1021.30, 4.75, 130.66, 75.70, -3.55e-04, -3817.18, 2.50e-05, 137.27, 1.22
2017-04-20, 1021.30, 4.75, 130.66, 75.70, -3.55e-04, -3817.18, 2.50e-05, 137.27, 1.22
2017-04-20, 1021.30, 4.75, 130.66, 75.70, -3.55e-04, -3817.18, 2.50e-05, 137.27, 1.22
2017-04-20, 1021.30, 4.75, 130.66, 75.70, -3.55e-04, -3817.18, 2.50e-05, 137.27, 1.22
2017-04-21, 1021.42, 4.65, 132.82, 72.62, -5.07e-04, -3816.28, 2.59e-05, 137.16, 1.22
2017-04-21, 1021.42, 4.65, 132.82, 72.62, -5.07e-04, -3816.28, 2.59e-05, 137.16, 1.22
2017-04-21, 1021.42, 4.65, 132.82, 72.62, -5.07e-04, -3816.28, 2.59e-05, 137.16, 1.22
2017-04-21, 1021.42, 4.65, 132.82, 72.62, -5.07e-04, -3816.28, 2.59e-05, 137.16, 1.22
2017-04-22, 1021.51, 4.52, 134.32, 68.56, -6.31e-04, -3812.60, 2.71e-05, 137.01, 1.22
2017-04-22, 1021.51, 4.52, 134.32, 68.56, -6.31e-04, -3812.60, 2.71e-05, 137.01, 1.22
2017-04-22, 1021.51, 4.52, 134.32, 68.56, -6.31e-04, -3812.60, 2.71e-05, 137.01, 1.22
2017-04-22, 1021.51, 4.52, 134.32, 68.56, -6.31e-04, -3812.60, 2.71e-05, 137.01, 1.22
2017-04-23, 1022.10, 3.81, 143.91, 51.92, -1.51e-03, -3650.24, 3.39e-05, 135.69, 1.19
2017-04-23, 1022.10, 3.81, 143.91, 51.92, -1.51e-03, -3650.24, 3.39e-05, 135.69, 1.19
2017-04-23, 1022.10, 3.81, 143.91, 51.92, -1.51e-03, -3650.24, 3.39e-05, 135.69, 1.19
2017-04-23, 1022.10, 3.81, 143.91, 51.92, -1.51e-03, -3650.24, 3.39e-05, 135.69, 1.19
2017-04-24, 1021.43, 4.66, 133.27, 70.62, -5.48e-04, -3845.41, 2.63e-05, 137.10, 1.23
2017-04-24, 1021.43, 4.66, 133.27, 70.62, -5.48e-04, -3845.41, 2.63e-05, 137.10, 1.23
2017-04-24, 1021.43, 4.66, 133.27, 70.62, -5.48e-04, -3845.41, 2.63e-05, 137.10, 1.23
2017-04-24, 1021.43, 4.66, 133.27, 70.62, -5.48e-04, -3845.41, 2.63e-05, 137.10, 1.23
2017-04-25, 1021.45, 4.64, 133.84, 69.83, -5.90e-04, -3847.76, 2.65e-05, 137.06, 1.23
2017-04-25, 1021.45, 4.64, 133.84, 69.83, -5.90e-04, -3847.76, 2.65e-05, 137.06, 1.23
2017-04-25, 1021.45, 4.64, 133.84, 69.83, -5.90e-04, -3847.76, 2.65e-05, 137.06, 1.23
2017-04-25, 1021.45, 4.64, 133.84, 69.83, -5.90e-04, -3847.76, 2.65e-05, 137.06, 1.23
2017-04-26, 1021.85, 4.01, 135.31, 46.36, -8.59e-04, -3885.67, 3.35e-05, 135.82, 1.26
2017-04-26, 1021.85, 4.01, 135.31, 46.36, -8.59e-04, -3885.67, 3.35e-05, 135.82, 1.26
2017-04-26, 1021.85, 4.01, 135.31, 46.36, -8.59e-04, -3885.67, 3.35e-05, 135.82, 1.26
2017-04-26, 1021.85, 4.01, 135.31, 46.36, -8.59e-04, -3885.67, 3.35e-05, 135.82, 1.26
2017-04-27, 1021.39, 4.65, 132.77, 68.06, -5.29e-04, -3878.78, 2.68e-05, 137.03, 1.24
2017-04-27, 1021.39, 4.65, 132.77, 68.06, -5.29e-04, -3878.78, 2.68e-05, 137.03, 1.24
2017-04-27, 1021.39, 4.65, 132.77, 68.06, -5.29e-04, -3878.78, 2.68e-05, 137.03, 1.24
2017-04-27, 1021.39, 4.65, 132.77, 68.06, -5.29e-04, -3878.78, 2.68e-05, 137.03, 1.24
2017-04-28, 1021.49, 4.56, 137.53, 66.65, -8.65e-04, -3840.33, 2.75e-05, 136.84, 1.23
2017-04-28, 1021.49, 4.56, 137.53, 66.65, -8.65e-04, -3840.33, 2.75e-05, 136.84, 1.23
2017-04-28, 1021.49, 4.56, 137.53, 66.65, -8.65e-04, -3840.33, 2.75e-05, 136.84, 1.23
2017-04-28, 1021.49, 4.56, 137.53, 66.65, -8.65e-04, -3840.33, 2.75e-05, 136.84, 1.23
2017-04-29, 1021.63, 4.47, 147.37, 57.17, -1.71e-03, -3850.39, 3.04e-05, 135.78, 1.25
2017-04-29, 1021.63, 4.47, 147.37, 57.17, -1.71e-03, -3850.39, 3.04e-05, 135.78, 1.25
2017-04-29, 1021.63, 4.47, 147.37, 57.17, -1.71e-03, -3850.39, 3.04e-05, 135.78, 1.25
2017-04-29, 1021.63, 4.47, 147.37, 57.17, -1.71e-03, -3850.39, 3.04e-05, 135.78, 1.25
2017-04-30, 1021.64, 4.17, 145.61, 49.97, -1.68e-03, -3827.59, 3.29e-05, 135.39, 1.25
2017-04-30, 1021.64, 4.17, 145.61, 49.97, -1.68e-03, -3827.59, 3.29e-05, 135.39, 1.25
2017-04-30, 1021.64, 4.17, 145.61, 49.97, -1.68e-03, -3827.59, 3.29e-05, 135.39, 1.25
2017-04-30, 1021.64, 4.17, 145.61, 49.97, -1.68e-03, -3827.59, 3.29e-05, 135.39, 1.25
2017-05-01, 1021.63, 4.34, 140.19, 54.76, -1.18e-03, -3895.13, 3.09e-05, 136.14, 1.26
2017-05-01, 1021.63, 4.34, 140.19, 54.76, -1.18e-03, -3895.13, 3.09e-05, 136.14, 1.26
2017-05-01, 1021.63, 4.34, 140.19, 54.76, -1.18e-03, -3895.13, 3.09e-05, 136.14, 1.26
2017-05-01, 1021.63, 4.34, 140.19, 54.76, -1.18e-03, -3895.13, 3.09e-05, 136.14, 1.26
2017-05-02, 1021.61, 4.23, 135.00, 52.48, -7.91e-04, -3909.46, 3.14e-05, 136.26, 1.26
2017-05-02, 1021.61, 4.23, 135.00, 52.48, -7.91e-04, -3909.46, 3.14e-05, 136.26, 1.26
2017-05-02, 1021.61, 4.23, 135.00, 52.48, -7.91e-04, -3909.46, 3.14e-05, 136.26, 1.26
2017-05-02, 1021.61, 4.23, 135.00, 52.48, -7.91e-04, -3909.46, 3.14e-05, 136.26, 1.26
2017-05-03, 1021.79, 4.02, 136.60, 49.51, -9.42e-04, -3840.07, 3.30e-05, 135.99, 1.25
