time,rho0,drho1,drho2,z1,z2,h1,h2,r10,r01,r20,h_e,c1
2017-04-03, 1021.18, 0.96, 4.26, 54.62, 148.14, 15.47, 84.19, 3.64e-04, -3709.81, 1.88e-06, 137.78, 1.17
2017-04-03, 1021.18, 0.96, 4.26, 54.62, 148.14, 15.47, 84.19, 3.64e-04, -3709.81, 1.88e-06, 137.78, 1.17
2017-04-03, 1021.18, 0.96, 4.26, 54.62, 148.14, 15.47, 84.19, 3.64e-04, -3709.81, 1.88e-06, 137.78, 1.17
2017-04-03, 1021.18, 0.96, 4.26, 54.62, 148.14, 15.47, 84.19, 3.64e-04, -3709.81, 1.88e-06, 137.78, 1.17
2017-04-04, 1021.27, 1.04, 3.95, 53.31, 152.16, 17.69, 71.54, -2.10e-04, -3717.22, 5.35e-06, 137.76, 1.18
2017-04-04, 1021.27, 1.04, 3.95, 53.31, 152.16, 17.69, 71.54, -2.10e-04, -3717.22, 5.35e-06, 137.76, 1.18
2017-04-04, 1021.27, 1.04, 3.95, 53.31, 152.16, 17.69, 71.54, -2.10e-04, -3717.22, 5.35e-06, 137.76, 1.18
2017-04-04, 1021.27, 1.04, 3.95, 53.31, 152.16, 17.69, 71.54, -2.10e-04, -3717.22, 5.35e-06, 137.76, 1.18
2017-04-05, 1021.34, 1.16, 3.58, 54.24, 150.28, 18.67, 58.67, -3.09e-04, -3760.90, 9.73e-06, 137.64, 1.19
2017-04-05, 1021.34, 1.16, 3.58, 54.24, 150.28, 18.67, 58.67, -3.09e-04, -3760.90, 9.73e-06, 137.64, 1.19
2017-04-05, 1021.34, 1.16, 3.58, 54.24, 150.28, 18.67, 58.67, -3.09e-04, -3760.90, 9.73e-06, 137.64, 1.19
2017-04-05, 1021.34, 1.16, 3.58, 54.24, 150.28, 18.67, 58.67, -3.09e-04, -3760.90, 9.73e-06, 137.64, 1.19
2017-04-06, 1021.36, 1.16, 3.49, 57.96, 146.94, 18.09, 51.97, -2.29e-04, -3852.98, 1.45e-05, 137.54, 1.22
2017-04-06, 1021.36, 1.16, 3.49, 57.96, 146.94, 18.09, 51.97, -2.29e-04, -3852.98, 1.45e-05, 137.54, 1.22
2017-04-06, 1021.36, 1.16, 3.49, 57.96, 146.94, 18.09, 51.97, -2.29e-04, -3852.98, 1.45e-05, 137.54, 1.22
2017-04-06, 1021.36, 1.16, 3.49, 57.96, 146.94, 18.09, 51.97, -2.29e-04, -3852.98, 1.45e-05, 137.54, 1.22
2017-04-07, 1021.35, 1.09, 3.54, 57.99, 143.98, 18.76, 50.83, -1.93e-04, -3893.46, 1.78e-05, 137.47, 1.24
2017-04-07, 1021.35, 1.09, 3.54, 57.99, 143.98, 18.76, 50.83, -1.93e-04, -3893.46, 1.78e-05, 137.47, 1.24
2017-04-07, 1021.35, 1.09, 3.54, 57.99, 143.98, 18.76, 50.83, -1.93e-04, -3893.46, 1.78e-05, 137.47, 1.24
2017-04-07, 1021.35, 1.09, 3.54, 57.99, 143.98, 18.76, 50.83, -1.93e-04, -3893.46, 1.78e-05, 137.47, 1.24
2017-04-08, 1021.37, 1.31, 3.26, 63.27, 147.31, 18.86, 44.26, -1.53e-04, -3920.99, 1.60e-05, 137.43, 1.25
2017-04-08, 1021.37, 1.31, 3.26, 63.27, 147.31, 18.86, 44.26, -1.53e-04, -3920.99, 1.60e-05, 137.43, 1.25
2017-04-08, 1021.37, 1.31, 3.26, 63.27, 147.31, 18.86, 44.26, -1.53e-04, -3920.99, 1.60e-05, 137.43, 1.25
2017-04-08, 1021.37, 1.31, 3.26, 63.27, 147.31, 18.86, 44.26, -1.53e-04, -3920.99, 1.60e-05, 137.43, 1.25
2017-04-09, 1021.35, 1.17, 3.44, 61.82, 142.74, 21.08, 47.29, -3.93e-05, -3947.81, 1.97e-05, 137.39, 1.25
2017-04-09, 1021.35, 1.17, 3.44, 61.82, 142.74, 21.08, 47.29, -3.93e-05, -3947.81, 1.97e-05, 137.39, 1.25
2017-04-09, 1021.35, 1.17, 3.44, 61.82, 142.74, 21.08, 47.29, -3.93e-05, -3947.81, 1.97e-05, 137.39, 1.25
2017-04-09, 1021.35, 1.17, 3.44, 61.82, 142.74, 21.08, 47.29, -3.93e-05, -3947.81, 1.97e-05, 137.39, 1.25
2017-04-10, 1021.31, 1.01, 3.62, 58.35, 137.43, 21.81, 49.77, 1.11e-04, -3959.69, 2.21e-05, 137.30, 1.26
2017-04-10, 1021.31, 1.01, 3.62, 58.35, 137.43, 21.81, 49.77, 1.11e-04, -3959.69, 2.21e-05, 137.30, 1.26
2017-04-10, 1021.31, 1.01, 3.62, 58.35, 137.43, 21.81, 49.77, 1.11e-04, -3959.69, 2.21e-05, 137.30, 1.26
2017-04-10, 1021.31, 1.01, 3.62, 58.35, 137.43, 21.81, 49.77, 1.11e-04, -3959.69, 2.21e-05, 137.30, 1.26
2017-04-11, 1021.30, 1.11, 3.51, 56.98, 141.08, 23.10, 48.81, -1.04e-04, -3920.00, 2.10e-05, 137.36, 1.25
2017-04-11, 1021.30, 1.11, 3.51, 56.98, 141.08, 23.10, 48.81, -1.04e-04, -3920.00, 2.10e-05, 137.36, 1.25
2017-04-11, 1021.30, 1.11, 3.51, 56.98, 141.08, 23.10, 48.81, -1.04e-04, -3920.00, 2.10e-05, 137.36, 1.25
2017-04-11, 1021.30, 1.11, 3.51, 56.98, 141.08, 23.10, 48.81, -1.04e-04, -3920.00, 2.10e-05, 137.36, 1.25
2017-04-12, 1021.32, 1.31, 3.26, 61.00, 145.74, 24.92, 46.14, -1.42e-04, -3888.89, 1.85e-05, 137.44, 1.24
2017-04-12, 1021.32, 1.31, 3.26, 61.00, 145.74, 24.92, 46.14, -1.42e-04, -3888.89, 1.85e-05, 137.44, 1.24
2017-04-12, 1021.32, 1.31, 3.26, 61.00, 145.74, 24.92, 46.14, -1.42e-04, -3888.89, 1.85e-05, 137.44, 1.24
2017-04-12, 1021.32, 1.31, 3.26, 61.00, 145.74, 24.92, 46.14, -1.42e-04, -3888.89, 1.85e-05, 137.44, 1.24
2017-04-13, 1021.31, 1.19, 3.35, 55.95, 142.48, 22.92, 49.97, -1.85e-06, -3837.54, 1.82e-05, 137.48, 1.22
2017-04-13, 1021.31, 1.19, 3.35, 55.95, 142.48, 22.92, 49.97, -1.85e-06, -3837.54, 1.82e-05, 137.48, 1.22
2017-04-13, 1021.31, 1.19, 3.35, 55.95, 142.48, 22.92, 49.97, -1.85e-06, -3837.54, 1.82e-05, 137.48, 1.22
2017-04-13, 1021.31, 1.19, 3.35, 55.95, 142.48, 22.92, 49.97, -1.85e-06, -3837.54, 1.82e-05, 137.48, 1.22
2017-04-14, 1021.30, 1.20, 3.31, 56.29, 141.67, 22.84, 47.53, -4.92e-06, -3856.08, 1.96e-05, 137.40, 1.23
2017-04-14, 1021.30, 1.20, 3.31, 56.29, 141.67, 22.84, 47.53, -4.92e-06, -3856.08, 1.96e-05, 137.40, 1.23
2017-04-14, 1021.30, 1.20, 3.31, 56.29, 141.67, 22.84, 47.53, -4.92e-06, -3856.08, 1.96e-05, 137.40, 1.23
2017-04-14, 1021.30, 1.20, 3.31, 56.29, 141.67, 22.84, 47.53, -4.92e-06, -3856.08, 1.96e-05, 137.40, 1.23
2017-04-15, 1021.30, 1.07, 3.43, 56.66, 141.02, 19.99, 49.64, -3.83e-05, -3858.19, 1.97e-05, 137.41, 1.23
2017-04-15, 1021.30, 1.07, 3.43, 56.66, 141.02, 19.99, 49.64, -3.83e-05, -3858.19, 1.97e-05, 137.41, 1.23
2017-04-15, 1021.30, 1.07, 3.43, 56.66, 141.02, 19.99, 49.64, -3.83e-05, -3858.19, 1.97e-05, 137.41, 1.23
2017-04-15, 1021.30, 1.07, 3.43, 56.66, 141.02, 19.99, 49.64, -3.83e-05, -3858.19, 1.97e-05, 137.41, 1.23
2017-04-16, 1021.40, 1.21, 3.17, 65.42, 147.37, 23.52, 46.38, -2.19e-04, -3841.74, 1.89e-05, 137.45, 1.22
2017-04-16, 1021.40, 1.21, 3.17, 65.42, 147.37, 23.52, 46.38, -2.19e-04, -3841.74, 1.89e-05, 137.45, 1.22
2017-04-16, 1021.40, 1.21, 3.17, 65.42, 147.37, 23.52, 46.38, -2.19e-04, -3841.74, 1.89e-05, 137.45, 1.22
2017-04-16, 1021.40, 1.21, 3.17, 65.42, 147.37, 23.52, 46.38, -2.19e-04, -3841.74, 1.89e-05, 137.45, 1.22
2017-04-17, 1021.33, 1.22, 3.25, 62.54, 147.54, 22.86, 47.59, -2.49e-04, -3842.89, 1.76e-05, 137.48, 1.22
2017-04-17, 1021.33, 1.22, 3.25, 62.54, 147.54, 22.86, 47.59, -2.49e-04, -3842.89, 1.76e-05, 137.48, 1.22
2017-04-17, 1021.33, 1.22, 3.25, 62.54, 147.54, 22.86, 47.59, -2.49e-04, -3842.89, 1.76e-05, 137.48, 1.22
2017-04-17, 1021.33, 1.22, 3.25, 62.54, 147.54, 22.86, 47.59, -2.49e-04, -3842.89, 1.76e-05, 137.48, 1.22
2017-04-18, 1021.32, 3.24, 1.23, 149.15, 62.01, 47.80, 23.86, -3.75e-04, -3821.85, 1.72e-05, 137.48, 1.21
2017-04-18, 1021.32, 3.24, 1.23, 149.15, 62.01, 47.80, 23.86, -3.75e-04, -3821.85, 1.72e-05, 137.48, 1.21
2017-04-18, 1021.32, 3.24, 1.23, 149.15, 62.01, 47.80, 23.86, -3.75e-04, -3821.85, 1.72e-05, 137.48, 1.21
2017-04-18, 1021.32, 3.24, 1.23, 149.15, 62.01, 47.80, 23.86, -3.75e-04, -3821.85, 1.72e-05, 137.48, 1.21
2017-04-19, 1021.31, 3.15, 1.31, 151.99, 65.04, 44.30, 22.62, -4.96e-04, -3839.07, 1.59e-05, 137.43, 1.22
2017-04-19, 1021.31, 3.15, 1.31, 151.99, 65.04, 44.30, 22.62, -4.96e-04, -3839.07, 1.59e-05, 137.43, 1.22
2017-04-19, 1021.31, 3.15, 1.31, 151.99, 65.04, 44.30, 22.62, -4.96e-04, -3839.07, 1.59e-05, 137.43, 1.22
2017-04-19, 1021.31, 3.15, 1.31, 151.99, 65.04, 44.30, 22.62, -4.96e-04, -3839.07, 1.59e-05, 137.43, 1.22
2017-04-20, 1021.31, 3.18, 1.27, 150.60, 63.03, 42.19, 20.77, -6.00e-04, -3853.96, 1.74e-05, 137.29, 1.23
2017-04-20, 1021.31, 3.18, 1.27, 150.60, 63.03, 42.19, 20.77, -6.00e-04, -3853.96, 1.74e-05, 137.29, 1.23
2017-04-20, 1021.31, 3.18, 1.27, 150.60, 63.03, 42.19, 20.77, -6.00e-04, -3853.96, 1.74e-05, 137.29, 1.23
2017-04-20, 1021.31, 3.18, 1.27, 150.60, 63.03, 42.19, 20.77, -6.00e-04, -3853.96, 1.74e-05, 137.29, 1.23
2017-04-21, 1020.35, 1.00, 4.91, 152.33, 99.00, 14.10, 123.35, -8.81e-04, -3810.84, 2.41e-05, 136.90, 1.22
2017-04-21, 1020.35, 1.00, 4.91, 152.33, 99.00, 14.10, 123.35, -8.81e-04, -3810.84, 2.41e-05, 136.90, 1.22
2017-04-21, 1020.35, 1.00, 4.91, 152.33, 99.00, 14.10, 123.35, -8.81e-04, -3810.84, 2.41e-05, 136.90, 1.22
2017-04-21, 1020.35, 1.00, 4.91, 152.33, 99.00, 14.10, 123.35, -8.81e-04, -3810.84, 2.41e-05, 136.90, 1.22
2017-04-22, 1021.31, 1.28, 3.18, 58.99, 150.25, 17.82, 37.55, -8.88e-04, -3858.87, 1.93e-05, 136.90, 1.24
2017-04-22, 1021.31, 1.28, 3.18, 58.99, 150.25, 17.82, 37.55, -8.88e-04, -3858.87, 1.93e-05, 136.90, 1.24
2017-04-22, 1021.31, 1.28, 3.18, 58.99, 150.25, 17.82, 37.55, -8.88e-04, -3858.87, 1.93e-05, 136.90, 1.24
2017-04-22, 1021.31, 1.28, 3.18, 58.99, 150.25, 17.82, 37.55, -8.88e-04, -3858.87, 1.93e-05, 136.90, 1.24
2017-04-23, 1021.47, 1.36, 3.52, 149.55, 132.24, 18.87, 123.35, -1.70e-03, -3620.01, 3.46e-05, 135.48, 1.18
2017-04-23, 1021.47, 1.36, 3.52, 149.55, 132.24, 18.87, 123.35, -1.70e-03, -3620.01, 3.46e-05, 135.48, 1.18
2017-04-23, 1021.47, 1.36, 3.52, 149.55, 132.24, 18.87, 123.35, -1.70e-03, -3620.01, 3.46e-05, 135.48, 1.18
2017-04-23, 1021.47, 1.36, 3.52, 149.55, 132.24, 18.87, 123.35, -1.70e-03, -3620.01, 3.46e-05, 135.48, 1.18
2017-04-24, 1021.26, 1.27, 3.29, 58.49, 149.41, 15.98, 39.55, -7.72e-04, -3895.40, 1.82e-05, 137.01, 1.25
2017-04-24, 1021.26, 1.27, 3.29, 58.49, 149.41, 15.98, 39.55, -7.72e-04, -3895.40, 1.82e-05, 137.01, 1.25
2017-04-24, 1021.26, 1.27, 3.29, 58.49, 149.41, 15.98, 39.55, -7.72e-04, -3895.40, 1.82e-05, 137.01, 1.25
2017-04-24, 1021.26, 1.27, 3.29, 58.49, 149.41, 15.98, 39.55, -7.72e-04, -3895.40, 1.82e-05, 137.01, 1.25
2017-04-25, 1020.27, 1.17, 4.77, 153.35, 92.55, 14.95, 123.35, -1.03e-03, -3832.45, 2.46e-05, 136.72, 1.23
2017-04-25, 1020.27, 1.17, 4.77, 153.35, 92.55, 14.95, 123.35, -1.03e-03, -3832.45, 2.46e-05, 136.72, 1.23
2017-04-25, 1020.27, 1.17, 4.77, 153.35, 92.55, 14.95, 123.35, -1.03e-03, -3832.45, 2.46e-05, 136.72, 1.23
2017-04-25, 1020.27, 1.17, 4.77, 153.35, 92.55, 14.95, 123.35, -1.03e-03, -3832.45, 2.46e-05, 136.72, 1.23
2017-04-26, 1020.30, 3.53, 1.93, 61.40, 152.94, 84.93, 14.06, -1.15e-03, -3901.91, 2.59e-05, 135.87, 1.27
2017-04-26, 1020.30, 3.53, 1.93, 61.40, 152.94, 84.93, 14.06, -1.15e-03, -3901.91, 2.59e-05, 135.87, 1.27
2017-04-26, 1020.30, 3.53, 1.93, 61.40, 152.94, 84.93, 14.06, -1.15e-03, -3901.91, 2.59e-05, 135.87, 1.27
2017-04-26, 1020.30, 3.53, 1.93, 61.40, 152.94, 84.93, 14.06, -1.15e-03, -3901.91, 2.59e-05, 135.87, 1.27
2017-04-27, 1020.27, 1.24, 4.61, 150.49, 91.64, 14.22, 117.83, -9.15e-04, -3876.15, 2.63e-05, 136.59, 1.25
2017-04-27, 1020.27, 1.24, 4.61, 150.49, 91.64, 14.22, 117.83, -9.15e-04, -3876.15, 2.63e-05, 136.59, 1.25
2017-04-27, 1020.27, 1.24, 4.61, 150.49, 91.64, 14.22, 117.83, -9.15e-04, -3876.15, 2.63e-05, 136.59, 1.25
2017-04-27, 1020.27, 1.24, 4.61, 150.49, 91.64, 14.22, 117.83, -9.15e-04, -3876.15, 2.63e-05, 136.59, 1.25
2017-04-28, 1020.33, 1.26, 4.60, 153.85, 96.95, 17.45, 123.35, -1.18e-03, -3836.71, 2.55e-05, 136.62, 1.23
2017-04-28, 1020.33, 1.26, 4.60, 153.85, 96.95, 17.45, 123.35, -1.18e-03, -3836.71, 2.55e-05, 136.62, 1.23
2017-04-28, 1020.33, 1.26, 4.60, 153.85, 96.95, 17.45, 123.35, -1.18e-03, -3836.71, 2.55e-05, 136.62, 1.23
2017-04-28, 1020.33, 1.26, 4.60, 153.85, 96.95, 17.45, 123.35, -1.18e-03, -3836.71, 2.55e-05, 136.62, 1.23
2017-04-29, 1021.47, 3.75, 0.72, 153.90, 66.27, 42.48, 15.53, -1.79e-03, -3889.73, 2.73e-05, 136.01, 1.26
2017-04-29, 1021.47, 3.75, 0.72, 153.90, 66.27, 42.48, 15.53, -1.79e-03, -3889.73, 2.73e-05, 136.01, 1.26
2017-04-29, 1021.47, 3.75, 0.72, 153.90, 66.27, 42.48, 15.53, -1.79e-03, -3889.73, 2.73e-05, 136.01, 1.26
2017-04-29, 1021.47, 3.75, 0.72, 153.90, 66.27, 42.48, 15.53, -1.79e-03, -3889.73, 2.73e-05, 136.01, 1.26
2017-04-30, 1021.47, 0.86, 3.53, 155.18, 139.11, 17.28, 65.28, -1.76e-03, -3834.31, 3.26e-05, 135.47, 1.25
2017-04-30, 1021.47, 0.86, 3.53, 155.18, 139.11, 17.28, 65.28, -1.76e-03, -3834.31, 3.26e-05, 135.47, 1.25
2017-04-30, 1021.47, 0.86, 3.53, 155.18, 139.11, 17.28, 65.28, -1.76e-03, -3834.31, 3.26e-05, 135.47, 1.25
2017-04-30, 1021.47, 0.86, 3.53, 155.18, 139.11, 17.28, 65.28, -1.76e-03, -3834.31, 3.26e-05, 135.47, 1.25
2017-05-01, 1021.48, 0.60, 3.97, 147.66, 136.85, 15.22, 68.05, -1.23e-03, -3895.20, 3.11e-05, 136.12, 1.26
2017-05-01, 1021.48, 0.60, 3.97, 147.66, 136.85, 15.22, 68.05, -1.23e-03, -3895.20, 3.11e-05, 136.12, 1.26
2017-05-01, 1021.48, 0.60, 3.97, 147.66, 136.85, 15.22, 68.05, -1.23e-03, -3895.20, 3.11e-05, 136.12, 1.26
2017-05-01, 1021.48, 0.60, 3.97, 147.66, 136.85, 15.22, 68.05, -1.23e-03, -3895.20, 3.11e-05, 136.12, 1.26
2017-05-02, 1021.49, 0.61, 3.85, 137.51, 134.04, 15.12, 65.98, -8.13e-04, -3907.49, 3.21e-05, 136.19, 1.26
2017-05-02, 1021.49, 0.61, 3.85, 137.51, 134.04, 15.12, 65.98, -8.13e-04, -3907.49, 3.21e-05, 136.19, 1.26
2017-05-02, 1021.49, 0.61, 3.85, 137.51, 134.04, 15.12, 65.98, -8.13e-04, -3907.49, 3.21e-05, 136.19, 1.26
2017-05-02, 1021.49, 0.61, 3.85, 137.51, 134.04, 15.12, 65.98, -8.13e-04, -3907.49, 3.21e-05, 136.19, 1.26
2017-05-03, 1021.58, 1.04, 3.21, 146.59, 126.86, 21.07, 66.94, -1.01e-03, -3846.09, 3.27e-05, 136.03, 1.25
